<?xml version="1.0" encoding="UTF-8" standalone="no"?>
<!-- Created with Inkscape (http://www.inkscape.org/) -->

<svg
   xmlns:dc="http://purl.org/dc/elements/1.1/"
   xmlns:cc="http://creativecommons.org/ns#"
   xmlns:rdf="http://www.w3.org/1999/02/22-rdf-syntax-ns#"
   xmlns:svg="http://www.w3.org/2000/svg"
   xmlns="http://www.w3.org/2000/svg"
   xmlns:sodipodi="http://sodipodi.sourceforge.net/DTD/sodipodi-0.dtd"
   xmlns:inkscape="http://www.inkscape.org/namespaces/inkscape"
   width="241.82977mm"
   height="36.738571mm"
   viewBox="0 0 856.87715 130.17604"
   id="svg4134"
   version="1.1"
   inkscape:version="0.91 r13725"
   sodipodi:docname="logo-grays.svg">
  <defs
     id="defs4136" />
  <sodipodi:namedview
     id="base"
     pagecolor="#ffffff"
     bordercolor="#666666"
     borderopacity="1.0"
     inkscape:pageopacity="0.0"
     inkscape:pageshadow="2"
     inkscape:zoom="0.7"
     inkscape:cx="425.85725"
     inkscape:cy="33.072454"
     inkscape:document-units="px"
     inkscape:current-layer="layer1"
     showgrid="false"
     inkscape:window-width="1920"
     inkscape:window-height="1018"
     inkscape:window-x="0"
     inkscape:window-y="0"
     inkscape:window-maximized="1"
     fit-margin-top="0"
     fit-margin-left="0"
     fit-margin-right="0"
     fit-margin-bottom="0" />
  <metadata
     id="metadata4139">
    <rdf:RDF>
      <cc:Work
         rdf:about="">
        <dc:format>image/svg+xml</dc:format>
        <dc:type
           rdf:resource="http://purl.org/dc/dcmitype/StillImage" />
        <dc:title></dc:title>
      </cc:Work>
    </rdf:RDF>
  </metadata>
  <g
     inkscape:label="Calque 1"
     inkscape:groupmode="layer"
     id="layer1"
     transform="translate(63.21426,-434.77293)">
    <rect
       style="fill:#737373;fill-opacity:1;stroke:none;stroke-width:0;stroke-linejoin:bevel;stroke-miterlimit:4;stroke-dasharray:none;stroke-opacity:0.33333333"
       id="rect4795"
       width="856.87714"
       height="2.6143193"
       x="-63.21426"
       y="562.33466" />
    <g
       id="g4799">
      <path
         sodipodi:nodetypes="ccssssscssscsscccsscccccssssccccccc"
         style="fill:#454545"
         d="m -63.214006,511.33543 -2.54e-4,-51.5625 30.9375,0.0148 c 33.935521,0.0163 40.03396,0.8847 50.155299,7.14225 10.809109,6.68276 16.351056,21.18156 16.376053,42.84291 0.03245,28.12301 -7.916548,44.70339 -24.200542,50.47855 -4.778927,1.69485 -3.01793,1.8307 24.85669,1.91741 l 30,0.0934 -5.624325,-3.73116 c -12.86055,-8.53167 -18.000318,-21.74011 -18.000318,-46.25818 0,-31.89871 9.902731,-47.78648 33.069143,-53.05557 23.54946,-5.35621 50.43199,0.002 60.5932,12.07834 10.312,12.25511 14.39015,36.16474 10.04342,58.88305 -2.71954,14.21378 -7.38102,21.99969 -16.98652,28.372 l -5.5946,3.71148 25.60266,0.005 25.60268,0.005 -4.68753,-3.18525 c -10.96977,-7.45416 -15.1225,-20.30977 -15.1225,-46.81475 0,-28.184 4.26008,-40.03343 17.29115,-48.09543 10.33454,-4.56847 24.45625,-4.00485 36.52385,-4.15348 l 30.41469,-0.3746 0,15.6871 0,15.68711 -16.95718,0 c -9.32645,0 -18.03339,0.57598 -19.34878,1.27995 -8.49416,4.54594 -7.88115,43.38649 0.73696,46.69357 1.11291,0.42707 9.57121,0.77648 18.79624,0.77648 l 16.77276,0 0,11.23167 0,11.23167 c 0,0 -75.20752,0.65962 -112.81225,0.66166 l -188.437244,0 -2.52e-4,-51.5625 z"
         id="path4760"
         inkscape:connector-curvature="0" />
      <path
         sodipodi:nodetypes="csssssssssssssccccssssscssssssccscssscssssssssssssssssssssssssssssccssssccccsssssscsssssssscsssscscsscsssscsssssccsssssscsssssscsssscssssssssssssssssssssssssssss"
         style="fill:#020202"
         d="m 309.2484,561.07899 c -6.99349,-3.69848 -15.52739,-13.7293 -18.71202,-21.99429 -3.90235,-10.1276 -4.88292,-32.39769 -1.97293,-44.80799 6.86214,-29.26509 29.2205,-43.22354 44.04943,-27.50029 4.57077,4.84643 9.17286,16.08194 9.17286,22.39459 0,3.55469 -0.54705,4.44159 -3.14124,5.09269 -3.96199,0.9944 -6.45435,-1.03132 -7.55396,-6.13964 -1.94533,-9.03716 -7.93004,-17.10113 -12.69168,-17.10113 -6.59568,0 -14.12118,9.08537 -18.63696,22.5 -3.17052,9.4184 -3.21201,30.53092 -0.0778,39.58815 4.57258,13.21379 17.28131,22.6579 26.01954,19.33563 3.54941,-1.34949 8.58205,-7.02208 8.58205,-9.67337 0,-2.71335 4.59876,-4.5531 7.5,-3.00041 5.3968,2.88828 1.0877,14.79356 -7.38363,20.39961 -4.17597,2.76353 -6.43591,3.34072 -12.90207,3.29514 -5.15335,-0.0362 -9.35108,-0.85474 -12.25164,-2.38869 z m 61.07716,-1.66275 c -13.21042,-9.09718 -18.85472,-22.93533 -18.97387,-46.51831 -0.0926,-18.34202 4.81741,-33.44362 14.17419,-43.59452 14.39476,-15.61647 31.41996,-10.70239 38.58978,11.1384 3.18419,9.69973 5.21542,33.38301 2.98154,34.76363 -0.71192,0.43999 -11.23865,1.17514 -23.39274,1.63366 l -22.09832,0.83368 0.8629,6.36258 c 2.02522,14.93305 9.89258,26.79268 19.11763,28.81884 6.09512,1.33872 12.38102,-2.36022 15.62603,-9.19515 2.823,-5.94606 5.88733,-7.67628 9.00809,-5.08628 4.70441,3.90431 -0.35525,15.71061 -9.11309,21.26467 -4.82016,3.05685 -7.10225,3.67795 -13.37918,3.6413 -6.43734,-0.0376 -8.43942,-0.64444 -13.40295,-4.0625 z m 14.4677,-52.96298 13.39644,-0.81967 -0.75994,-5.11783 c -4.16996,-28.08274 -12.18895,-36.15514 -23.83835,-23.99716 -5.22723,5.45545 -9.28578,14.85169 -11.25912,26.06683 l -0.82478,4.6875 4.94467,0 c 2.71956,0 10.97305,-0.36885 18.34108,-0.81967 z m 46.43894,52.51767 c -8.74864,-8.49656 -12.45282,-22.17471 -14.50816,-53.573 -2.12836,-32.51394 0.3045,-46.73044 7.2492,-42.36084 1.9329,1.21618 2.27942,4.5616 2.97729,28.74361 1.0727,37.17038 4.84072,54.66209 12.91483,59.95245 3.17574,2.08082 3.4519,2.06772 6.64345,-0.31512 8.73437,-6.52114 13.43639,-25.66635 15.44692,-62.8951 1.51466,-28.04704 2.17427,-30.36132 7.90883,-27.74848 3.15538,1.43768 3.17118,1.5249 3.17118,17.50458 0,30.7623 -4.83039,60.21093 -11.83746,72.16761 -1.73804,2.96573 -5.25753,7.12115 -7.8211,9.23427 -3.86024,3.18192 -5.76037,3.84202 -11.05949,3.84202 -5.66851,0 -6.93315,-0.51929 -11.08549,-4.552 z m 70.46187,2.08019 c -9.50475,-5.02473 -16.78753,-16.02092 -19.74552,-29.81352 -1.9692,-9.18205 -1.73095,-28.08358 0.47174,-37.42612 6.50321,-27.58281 26.69562,-41.64139 41.34083,-28.78275 7.66743,6.73211 11.81822,18.26821 13.62566,37.8692 1.21827,13.21188 1.69713,12.93489 -24.08671,13.93303 -11.88588,0.46013 -21.84176,1.21048 -22.12418,1.66745 -0.86634,1.40177 2.80679,17.05665 5.03971,21.47924 7.78153,15.41227 23.59973,17.44925 29.91521,3.85233 2.54094,-5.47052 5.05553,-7.18827 8.55626,-5.84492 3.10436,1.19126 3.64884,4.89974 1.48111,10.08787 -2.44103,5.84221 -4.91507,8.67126 -10.9201,12.48714 -5.9419,3.77575 -16.90823,4.00437 -23.55401,0.49105 z m 13.04327,-54.60732 12.32659,-0.8162 -0.86084,-7.60882 c -1.08417,-9.58287 -4.80326,-20.28994 -8.36432,-24.08053 -1.68077,-1.78908 -4.17811,-2.91532 -6.46447,-2.91532 -7.76846,0 -17.44997,15.25269 -19.23197,30.29892 l -0.70481,5.95108 5.48661,-0.007 c 3.01764,-0.004 11.03357,-0.37376 17.81321,-0.82267 z m 34.14126,55.32113 c -0.39944,-1.04093 -1.4208,-23.58594 -2.2697,-50.10002 -1.42171,-44.40533 -1.38065,-48.3702 0.52053,-50.27138 1.69509,-1.6951 2.63071,-1.80574 5.23513,-0.61908 2.92482,1.33263 3.17838,2.10246 3.26383,9.90918 0.051,4.65537 0.49771,10.99555 0.99279,14.0893 l 0.90014,5.625 0.88213,-4.375 c 1.41759,-7.03055 7.78644,-19.34986 11.52301,-22.28905 4.36079,-3.43019 10.9813,-3.50636 15.65265,-0.18007 7.24184,5.15665 13.05389,23.07836 16.81317,51.84412 2.78592,21.31783 4.00338,41.17021 2.75456,44.91671 -1.16628,3.49883 -5.82021,4.45113 -8.04305,1.64579 -0.68094,-0.85937 -1.90903,-10.28125 -2.72909,-20.9375 -2.57969,-33.52174 -8.24935,-60.0187 -14.36334,-67.12664 l -2.93483,-3.41195 -2.66285,4.3318 c -5.4962,8.94094 -10.21018,29.64172 -13.22637,58.08179 -3.21537,30.3183 -3.11872,29.93599 -7.67951,30.3798 -2.59687,0.2527 -4.14597,-0.25354 -4.6292,-1.5128 z m 68.53335,0.50995 c -1.14025,-1.84495 -1.78412,-13.72892 -3.12941,-57.75898 -0.666,-21.79762 -0.88578,-40.47933 -0.48837,-41.51492 1.16563,-3.03761 5.39462,-3.70325 8.08114,-1.27198 2.09491,1.89585 2.42003,3.99685 2.48375,16.05016 l 0.0733,13.86877 2.83675,-8.125 c 5.61698,-16.08808 11.08308,-22.5 19.18104,-22.5 13.68556,0 22.70275,26.78361 26.75009,79.45533 1.60363,20.86966 1.16627,23.04467 -4.63384,23.04467 -3.48306,0 -5.51271,-5.7441 -5.52372,-15.63266 -0.0113,-10.40872 -3.60804,-37.81938 -6.85095,-52.21523 -2.92779,-12.99698 -7.52107,-24.02711 -10.00563,-24.02711 -2.41113,0 -6.69786,8.38878 -9.40609,18.4069 -3.82147,14.13624 -5.88329,26.53372 -8.12931,48.88081 -2.52052,25.0783 -2.38442,24.58729 -6.81505,24.58729 -2.00883,0 -3.99951,-0.56163 -4.42374,-1.24805 z m 82.48786,-2.98555 c -10.81907,-7.09701 -16.11722,-17.75077 -18.29393,-36.78621 -2.61267,-22.84793 3.73157,-44.20095 16.55931,-55.73419 16.24979,-14.60996 32.24076,-5.28955 37.89569,22.08768 2.47126,11.96412 2.59502,23.84551 0.26852,25.77634 -1.03104,0.85569 -10.23614,1.73819 -23.25926,2.22988 l -21.55294,0.81374 0.82543,6.22234 c 1.81258,13.66397 7.16541,23.24387 15.17192,27.15305 8.50879,4.15442 14.72707,1.73038 19.70284,-7.68064 3.04124,-5.7521 5.97221,-7.31422 9.0034,-4.79855 2.70516,2.24508 2.20336,7.19273 -1.34328,13.24462 -7.1026,12.11967 -22.78531,15.4698 -34.9777,7.47194 z m 27.67952,-53.70195 c 0.0928,-0.1042 -0.3358,-3.8457 -0.95229,-8.31445 -2.25363,-16.3358 -7.56413,-26.25 -14.06071,-26.25 -7.05055,0 -15.61919,11.38239 -18.83267,25.01692 -2.97252,12.61215 -4.36637,11.67686 15.86458,10.64526 9.79687,-0.49955 17.88836,-0.99353 17.98109,-1.09773 z m 29.04522,55.42806 c -8.38065,-4.42845 -12.99938,-11.86824 -12.12391,-19.52897 0.36291,-3.17565 0.90434,-3.58854 4.70564,-3.58854 3.87132,0 4.40158,0.43207 5.36937,4.375 3.10091,12.63381 20.97954,14.76128 26.4885,3.152 4.7628,-10.03687 1.70941,-16.7 -14.65235,-31.97444 -13.50373,-12.60635 -16.34206,-17.61385 -16.28396,-28.72888 0.17021,-32.56376 37.95513,-32.96395 41.31214,-0.43756 0.74495,7.21782 -0.72641,10.48888 -4.71801,10.48888 -3.54159,0 -6.18623,-3.5288 -6.18623,-8.25443 0,-5.68177 -2.9023,-12.45394 -6.062,-14.14496 -6.94941,-3.71921 -12.2814,0.0943 -13.5706,9.70603 -1.15998,8.64826 1.34006,13.01608 14.23276,24.86604 14.37661,13.21386 17.89984,19.22035 17.89984,30.51611 0,16.0228 -9.43254,26.11455 -24.30722,26.00596 -4.95891,-0.0362 -9.13157,-0.88156 -12.10397,-2.45224 z M 242.17116,517.0673 c -3.78372,-1.88018 -4.39025,-4.21158 -1.88525,-7.24671 1.85319,-2.24538 4.0591,-2.676 17.25503,-3.36838 14.4028,-0.7557 15.26055,-0.66353 17.84115,1.91707 3.54721,3.54721 1.74694,7.29561 -3.92404,8.17037 -9.78557,1.50943 -26.69794,1.81414 -29.28689,0.52765 z m 128.61458,-61.29437 c -0.825,-0.825 -1.5,-2.38921 -1.5,-3.47603 0,-2.20524 16.79196,-17.52397 19.20929,-17.52397 4.09082,0 5.94071,6.29851 2.93846,10.00488 -0.83751,1.03393 -4.27382,4.26831 -7.63624,7.1875 -6.17305,5.35933 -10.26295,6.55618 -13.01151,3.80762 z"
         id="path4758"
         inkscape:connector-curvature="0" />
    </g>
  </g>
</svg>
