<?xml version="1.0" encoding="UTF-8" standalone="no"?>
<svg
   xmlns:dc="http://purl.org/dc/elements/1.1/"
   xmlns:cc="http://creativecommons.org/ns#"
   xmlns:rdf="http://www.w3.org/1999/02/22-rdf-syntax-ns#"
   xmlns:svg="http://www.w3.org/2000/svg"
   xmlns="http://www.w3.org/2000/svg"
   height="369"
   width="360"
   version="1.1"
   id="svg2">
  <metadata
     id="metadata8">
    <rdf:RDF>
      <cc:Work
         rdf:about="">
        <dc:format>image/svg+xml</dc:format>
        <dc:type
           rdf:resource="http://purl.org/dc/dcmitype/StillImage" />
        <dc:title></dc:title>
      </cc:Work>
    </rdf:RDF>
  </metadata>
  <defs
     id="defs6" />
  <path
     id="path2841"
     d="M 0,340.82635 0,312.65271 24.30336,288.07635 C 37.6702,274.55936 56.65651,255.2875 66.49514,245.25 76.33377,235.2125 85.00847,227 85.77224,227 c 1.50975,0 18.23238,10.03431 63.12429,37.87735 1.184,0.73434 1.16245,1.20036 -0.14157,3.0621 -1.32078,1.88568 -36.31349,37.96344 -84.68467,87.31055 L 50.59223,369 25.29611,369 0,369 0,340.82635 Z m 139,7.08138 c -9.44879,-1.20162 -20.70961,-6.33331 -25.69002,-11.70727 -3.54133,-3.82115 -3.17513,-9.2947 0.84835,-12.68024 3.73726,-3.14469 5.24985,-2.93502 13.15121,1.82293 7.49294,4.51201 15.92295,6.16327 23.49135,4.60144 13.45116,-2.77579 18.15828,-7.44377 28.90652,-28.66611 8.06705,-15.92834 18.03777,-32.31407 25.09915,-41.24757 1.96977,-2.492 10.62421,-11.73091 19.23209,-20.53091 17.14007,-17.52263 20.30025,-21.64089 25.95724,-33.8267 C 255.59019,193.62253 258,182.4791 258,168.66078 258,140.80125 249.4893,120.03211 230.47912,101.5 217.81108,89.150537 200.53629,79.9986 184.35578,77.064515 171.23246,74.684804 151.54361,75.934415 138.35252,79.984246 115.40329,87.029948 94.667127,105.65771 83.76692,129.01974 81.81581,133.2015 77,149.49942 77,151.92074 c 0,0.93335 -0.60957,2.53063 -1.35459,3.54951 -1.29194,1.76683 -1.69192,1.67106 -8.64848,-2.07071 -4.01165,-2.15777 -7.78626,-4.70377 -8.38803,-5.65778 -2.95219,-4.6802 8.97418,-34.35926 19.23403,-47.864338 12.37,-16.282686 29.69077,-29.503828 47.68639,-36.399577 15.8049,-6.056289 24.00851,-7.611062 39.97068,-7.575364 20.13286,0.04502 35.95455,3.887945 52.33882,12.712541 29.25179,15.755059 48.11808,39.732428 56.95523,72.384978 2.28719,8.45098 2.57144,11.37719 2.57421,26.5 0.003,14.37819 -0.33717,18.27205 -2.20336,25.24803 -7.16175,26.77131 -15.30781,39.96598 -38.36169,62.13675 -20.24008,19.46477 -33.25929,37.11136 -40.66263,55.11522 -4.17189,10.14545 -7.04319,14.97291 -12.49046,21 C 171.9913,343.8998 155.77388,350.04088 139,347.90773 Z M 219.69578,213.02202 C 217.1131,211.38414 215,209.32911 215,208.4553 c 0,-0.87381 1.1163,-3.05229 2.48066,-4.84106 6.03489,-7.91214 11.47605,-24.18983 11.50456,-34.41683 0.0207,-7.42553 -2.63783,-18.45302 -6.43626,-26.69741 -6.56324,-14.24532 -20.4633,-26.63174 -35.7908,-31.89337 -6.27631,-2.15453 -9.60186,-2.66421 -17.56762,-2.69245 -11.39923,-0.0404 -16.99743,1.12641 -26.69054,5.56302 -11.21381,5.13265 -20.02937,13.67042 -27.16278,26.30683 -4.02842,7.1361 -4.36888,7.19032 -12.58722,2.00466 -5.681873,-3.58518 -5.859123,-4.92783 -1.6845,-12.7602 11.16167,-20.94144 32.59599,-35.207979 58.4345,-38.893614 15.07838,-2.150797 35.9876,2.892054 50.17408,12.100904 15.59909,10.12581 26.54108,24.88028 32.48191,43.79946 1.9916,6.34246 2.34401,9.5696 2.34401,21.46476 0,11.89395 -0.35251,15.12258 -2.34329,21.46237 C 237.77359,202.92072 229.86642,216 225.81091,216 c -0.78064,0 -3.53245,-1.34009 -6.11513,-2.97798 z M 285.95299,122.75 C 277.52447,101.50959 265.91514,85.544017 247.02101,69.209323 l -3.47899,-3.007719 7.93486,-8.350802 C 255.84105,53.257861 270.22755,38.3625 283.44687,24.75 L 307.482,0 333.741,0 360,0 l 0,27.255209 0,27.255208 -35.75514,35.744792 C 304.57954,109.91484 288.20913,126 287.86618,126 c -0.34295,0 -1.20388,-1.4625 -1.91319,-3.25 z"
     style="fill:#000000" />
</svg>
