<?xml version="1.0" encoding="UTF-8" standalone="no"?>
<!-- Created with Inkscape (http://www.inkscape.org/) -->

<svg
   xmlns:dc="http://purl.org/dc/elements/1.1/"
   xmlns:cc="http://creativecommons.org/ns#"
   xmlns:rdf="http://www.w3.org/1999/02/22-rdf-syntax-ns#"
   xmlns:svg="http://www.w3.org/2000/svg"
   xmlns="http://www.w3.org/2000/svg"
   xmlns:sodipodi="http://sodipodi.sourceforge.net/DTD/sodipodi-0.dtd"
   xmlns:inkscape="http://www.inkscape.org/namespaces/inkscape"
   width="242.00555mm"
   height="36.688732mm"
   viewBox="0 0 857.5 129.99944"
   id="svg2"
   version="1.1"
   inkscape:version="0.91 r13725"
   sodipodi:docname="logo-white.svg">
  <defs
     id="defs4" />
  <sodipodi:namedview
     id="base"
     pagecolor="#ffffff"
     bordercolor="#666666"
     borderopacity="1.0"
     inkscape:pageopacity="0.0"
     inkscape:pageshadow="2"
     inkscape:zoom="0.49497475"
     inkscape:cx="284.80523"
     inkscape:cy="165.045"
     inkscape:document-units="px"
     inkscape:current-layer="layer1"
     showgrid="false"
     fit-margin-top="0"
     fit-margin-left="0"
     fit-margin-right="0"
     fit-margin-bottom="0"
     inkscape:window-width="1920"
     inkscape:window-height="1018"
     inkscape:window-x="0"
     inkscape:window-y="0"
     inkscape:window-maximized="1">
    <sodipodi:guide
       position="0,0"
       orientation="0,857.5"
       id="guide4136" />
    <sodipodi:guide
       position="857.5,0"
       orientation="-129.99944,0"
       id="guide4138" />
    <sodipodi:guide
       position="857.5,129.99943"
       orientation="0,-857.5"
       id="guide4140" />
    <sodipodi:guide
       position="0,129.99943"
       orientation="129.99944,0"
       id="guide4142" />
  </sodipodi:namedview>
  <metadata
     id="metadata7">
    <rdf:RDF>
      <cc:Work
         rdf:about="">
        <dc:format>image/svg+xml</dc:format>
        <dc:type
           rdf:resource="http://purl.org/dc/dcmitype/StillImage" />
        <dc:title />
      </cc:Work>
    </rdf:RDF>
  </metadata>
  <g
     inkscape:label="Calque 1"
     inkscape:groupmode="layer"
     id="layer1"
     transform="translate(-29.173618,-387.77155)">
    <path
       style="fill:#ffffff;fill-opacity:1"
       d="m 29.173648,464.60564 0,-53.1659 29.266169,0.12637 c 37.383652,0.16143 46.556273,2.0447 56.780863,11.65788 9.29999,8.74387 11.967,19.38693 11.18121,44.62009 -0.4534,14.55959 -1.08123,19.38268 -3.24483,24.92747 -3.61465,9.26347 -8.91833,15.37105 -16.72688,19.26221 l -6.497391,3.23779 27.932981,0 27.93298,0 -4.91988,-3.56394 c -7.02971,-5.0923 -11.09505,-10.35199 -14.37951,-18.60406 -2.58425,-6.49282 -2.86851,-9.25085 -2.86851,-27.832 0,-18.37123 0.30261,-21.38355 2.76927,-27.56676 7.97859,-20.00005 21.40535,-27.43324 49.55332,-27.43324 29.00255,0 42.99382,8.11098 50.34899,29.18815 1.80527,5.17323 2.2412,10.36304 2.22062,26.43685 -0.023,17.93654 -0.32316,20.74357 -2.90961,27.207 -3.30509,8.25928 -7.37425,13.51825 -14.39501,18.60406 l -4.91988,3.56394 24.1804,0 24.1804,0 -4.1441,-3.05743 c -10.31465,-7.60989 -13.98534,-17.90459 -14.79285,-41.48748 -0.91204,-26.63525 2.22662,-40.28816 11.36192,-49.42346 7.94874,-7.94874 10.68224,-8.47375 44.27683,-8.50418 l 30.3125,-0.0275 0,15.625 0,15.625 -17.22186,0 c -19.55168,0 -21.8441,0.81037 -23.97259,8.47435 -0.71039,2.55786 -1.29475,10.15309 -1.29858,16.8783 -0.007,13.23093 1.78622,19.76214 6.05503,22.04674 1.45201,0.77709 9.72431,1.35061 19.48082,1.35061 l 16.95718,0 0,11.25 0,11.25 35.3125,-0.038 c 26.3725,-0.0284 34.67958,-0.38596 32.8125,-1.41241 -4.94843,-2.72045 -12.15099,-10.54186 -15.20439,-16.51074 -13.38552,-26.16646 -5.17438,-69.53717 15.45383,-81.6261 4.59175,-2.69095 6.60022,-3.12075 12.35366,-2.64364 5.89351,0.48874 7.56341,1.24643 11.74393,5.32858 5.2478,5.12434 9.46413,13.56105 10.72833,21.46693 0.93579,5.85206 -1.17336,8.33112 -6.56227,7.71321 -3.00349,-0.34439 -3.80548,-1.31556 -5.52875,-6.6951 -4.73586,-14.78391 -9.32918,-18.83255 -16.56901,-14.60427 -4.75558,2.77741 -8.53552,8.20112 -12.24853,17.57502 -2.35966,5.95724 -2.81016,9.53711 -2.85891,22.71864 -0.0564,15.23732 0.0504,15.86725 4.07824,24.05296 3.24986,6.60467 5.28223,9.07751 9.48482,11.54039 9.33646,5.47153 17.11006,3.51061 20.87171,-5.26495 1.97274,-4.60222 2.81801,-5.35052 6.04394,-5.35052 8.46311,0 7.7828,11.14557 -1.17425,19.23772 l -4.99455,4.51228 19.51379,0 19.5138,0 -6.12418,-5.50616 c -11.47895,-10.32056 -16.24428,-25.74219 -15.0543,-48.71887 1.38653,-26.77155 13.83944,-46.65078 30.06633,-47.99644 14.35685,-1.19058 22.40967,8.53181 26.50147,31.99593 3.87793,22.23766 2.53175,25.22161 -11.38313,25.23201 -4.75837,0.004 -14.13595,0.36964 -20.83908,0.81353 l -12.1875,0.80706 0,3.4501 c 0,5.22936 4.33579,18.05911 7.43424,21.99814 8.71594,11.08053 21.25472,10.35661 26.34609,-1.52106 2.01753,-4.7067 2.92168,-5.55424 5.92524,-5.55424 4.15168,0 6.54443,2.00371 6.54443,5.48034 0,4.56903 -5.22191,13.33033 -9.79883,16.44042 l -4.53151,3.07924 19.18563,0 19.18561,0 -4.44583,-4.921 c -8.75237,-9.68783 -13.28546,-33.34195 -13.32217,-69.5165 -0.0246,-24.23095 0.30482,-25.5625 6.32405,-25.5625 5.57794,0 6.40736,2.30145 5.48751,15.22656 -0.95322,13.394 1.13735,42.857 3.8865,54.77344 4.20055,18.2077 10.15747,24.06837 16.85015,16.57795 7.88883,-8.82913 12.10958,-29.02485 13.2612,-63.45295 0.41394,-12.375 1.30864,-23.20313 1.98822,-24.0625 0.67957,-0.85938 2.86627,-1.5625 4.85932,-1.5625 6.17025,0 6.63486,2.91425 5.02826,31.53925 -2.14021,38.1324 -7.69277,59.21658 -17.84435,67.75857 l -3.80557,3.20218 25.28076,0 25.28076,0 -4.19465,-2.82676 c -11.72708,-7.9029 -17.86865,-23.3816 -17.9732,-45.29824 -0.0371,-7.79153 0.68372,-16.72924 1.66353,-20.625 2.08054,-8.27222 7.49265,-19.40394 12.09081,-24.86855 9.01955,-10.71911 24.02032,-11.84116 32.59024,-2.43772 6.81732,7.48041 11.70356,24.38799 11.70356,40.49725 0,9.68907 -1.09608,10.55618 -13.35533,10.56549 -4.68582,0.004 -14.0547,0.37297 -20.81972,0.82092 l -12.30005,0.81445 0.85364,5.69246 c 2.3034,15.36015 9.81357,26.04225 19.19388,27.30041 6.39463,0.8577 10.69104,-1.69962 13.66448,-8.1334 2.59101,-5.60629 3.6483,-6.45748 8.05179,-6.48217 8.49832,-0.0477 4.41264,16.38907 -5.58976,22.48761 l -4.07393,2.4839 12.10891,0.005 12.10892,0.005 -0.51743,-4.0625 c -0.28459,-2.23503 -1.14113,-24.47874 -1.90343,-49.43113 -1.50463,-49.2514 -1.53049,-49.00702 5.18711,-49.00702 4.9704,0 6.13056,2.96592 6.20202,15.85532 l 0.0611,11.01968 3.0379,-7.89553 c 3.78633,-9.84069 7.19827,-14.70419 12.0903,-17.23396 7.04112,-3.6411 15.6916,0.44857 20.4622,9.67388 2.93765,5.68081 7.67483,23.59085 9.70857,36.70561 2.47808,15.98005 5.016,45.82967 4.30721,50.65892 -0.52898,3.60408 -0.3915,3.71608 4.56168,3.71608 l 5.1071,0 -0.793,-12.8125 c -0.43615,-7.04688 -1.21112,-29.26807 -1.72214,-49.38043 -0.99006,-38.96533 -0.82709,-40.30707 4.896,-40.30707 4.20118,0 5.71549,2.43391 5.79399,9.3125 0.0696,6.10095 1.99146,18.24279 2.2852,14.4375 0.2843,-3.68303 7.37457,-16.9308 10.70411,-20 2.56814,-2.36734 4.75273,-3.125 9.0104,-3.125 4.85385,0 6.18163,0.61246 9.73591,4.49086 2.26357,2.46998 5.36576,7.81373 6.89376,11.875 5.18204,13.77326 10.78214,49.85598 11.57343,74.5702 l 0.35015,10.93606 13.38395,10e-4 13.38395,10e-4 -6.17877,-5.77951 c -10.51102,-9.83145 -14.97868,-22.78829 -14.94566,-43.34414 0.0307,-19.1265 4.88039,-33.97242 14.61889,-44.75177 5.88587,-6.51495 10.1269,-8.6242 17.34053,-8.6242 14.4245,0 22.82554,12.93245 25.7728,39.67432 1.84862,16.77341 1.10526,17.82279 -12.63193,17.83215 -5.22156,0.004 -14.88069,0.36324 -21.4647,0.7993 l -11.97092,0.79284 1.05299,7.01319 c 1.40551,9.36119 6.8985,19.9962 12.15908,23.54131 8.1026,5.46034 16.84353,2.78995 21.19927,-6.47647 2.25566,-4.79872 3.22362,-5.67664 6.25887,-5.67664 5.4906,0 7.0267,2.67046 5.21778,9.07096 -1.64008,5.8031 -3.80188,8.85384 -9.3022,13.1273 l -3.60608,2.80174 15.97842,0 15.97844,0 -4.17977,-2.81675 c -7.59719,-5.11974 -12.18675,-17.25787 -8.07869,-21.36593 4.0691,-4.0691 10.63875,-1.17968 10.63875,4.67907 0,6.56222 11.09216,11.42559 18.7883,8.23774 4.72685,-1.95792 7.4617,-6.99173 7.4617,-13.73413 0,-7.41295 -2.1642,-10.63641 -15.07392,-22.45185 -14.70118,-13.45503 -18.0453,-19.83857 -17.12572,-32.69099 0.71224,-9.95449 4.64948,-17.22422 11.14876,-20.58514 5.41005,-2.79763 15.62238,-1.88745 20.88745,1.86161 4.82678,3.43697 9.52577,12.3941 10.69219,20.38127 1.08531,7.43177 -0.63642,10.9851 -5.32274,10.9851 -4.26368,0 -6.45602,-2.0519 -6.45602,-6.04248 0,-17.32957 -15.30169,-23.67583 -18.86323,-7.82338 -1.85807,8.2703 2.38759,16.01363 14.3579,26.18624 14.10132,11.98356 18.28744,19.19964 18.22788,31.42137 -0.0358,7.34655 -3.44885,14.66144 -9.19483,19.70647 l -4.61471,4.05178 6.91849,0 c 3.80518,0 7.606,2.5 6.9185,2.5 -2.45536,-10e-6 -143.75,0 -428.75,0 l -428.750002,0 0,-53.16591 z m 656.647732,30.97841 c -1.88829,-23.33787 -3.46548,-34.80342 -6.70698,-48.75721 -2.36901,-10.19797 -6.18562,-19.38204 -8.70046,-20.9363 -1.76872,-1.09312 -6.92785,10.5413 -10.02972,22.6181 -2.43443,9.47821 -6.47523,38.61258 -8.00278,57.70041 l -0.72524,9.0625 17.87906,0 17.87907,0 z m 70.40772,18.72947 c -0.32565,-0.5269 -1.23249,-8.82378 -2.0152,-18.43749 -2.57909,-31.67758 -7.04362,-54.83022 -12.7176,-65.95213 l -2.63481,-5.16463 -2.32648,2.87308 c -5.60677,6.92408 -11.13691,32.04219 -14.6854,66.7017 l -2.1436,20.9375 18.55759,0 c 10.20668,0 18.29115,-0.43111 17.9655,-0.95803 z m -270.84023,-56.09751 4.02772,-0.80555 -0.8528,-6.82566 c -2.05953,-16.48382 -8.46447,-27.76707 -14.69359,-25.88493 -6.75228,2.04022 -13.52061,11.61707 -16.74736,23.69668 -2.95526,11.06332 -3.42018,10.625 11.26956,10.625 7.13281,0 14.78122,-0.3625 16.99647,-0.80554 z m 128.62853,0.0243 c 3.26911,-0.65382 3.90625,-1.35738 3.90625,-4.31347 0,-10.55712 -5.30451,-24.65911 -10.57449,-28.11213 -2.60532,-1.70707 -3.52932,-1.75459 -6.43285,-0.33078 -7.03481,3.44969 -13.62011,15.3061 -16.02398,28.85013 l -0.83197,4.6875 13.0254,0 c 7.16397,0 14.7832,-0.35156 16.93164,-0.78125 z m 204.615,-0.75967 c 1.44899,-1.45082 -1.73556,-18.01152 -4.65982,-24.23262 -1.4617,-3.10963 -3.94927,-6.50017 -5.52794,-7.53456 -6.39932,-4.19299 -15.39427,4.33967 -20.47554,19.42319 -1.4,4.15583 -2.54545,9.03653 -2.54545,10.84601 l 0,3.28996 16.14699,-0.43803 c 8.88085,-0.24092 16.55863,-0.85019 17.06176,-1.35395 z m -486.02125,11.90378 c -6.04894,-6.73258 -0.91481,-9.86149 17.66344,-10.76471 15.82084,-0.76916 20.14906,0.5469 20.14906,6.12662 0,4.54817 -4.22014,5.87958 -20.6102,6.50233 -13.70926,0.52089 -15.205,0.35879 -17.2023,-1.86424 z m 129.68796,-60.81174 c -1.0627,-1.62188 -1.61314,-3.78029 -1.22319,-4.79646 1.12502,-2.93175 17.67192,-16.00467 20.25772,-16.00467 3.08451,0 5.34001,2.37154 5.34001,5.61474 0,4.10277 -15.5835,18.13526 -20.13976,18.13526 -1.26643,0 -3.17209,-1.32699 -4.23478,-2.94887 z"
       id="path4189"
       inkscape:connector-curvature="0"
       sodipodi:nodetypes="ccssssscccssssssssscccsssscccsscsscccssssssssssssssssscccsssscscsssssscccssssssscssscccsssssscscsssssccccssscsssssscssssssssssccccsssscscsssssscccsssssssssssssssscssscccssssscccscsscsscscscsssssssssscssssssscsssssssssssss" />
  </g>
</svg>
